[gd_scene load_steps=5 format=2]

[ext_resource path="res://objects/trees/tree.tscn" type="PackedScene" id=1]
[ext_resource path="res://objects/trees/burned_big_tree.png" type="Texture" id=2]
[ext_resource path="res://objects/trees/big_tree.png" type="Texture" id=3]

[sub_resource type="CircleShape2D" id=1]

custom_solver_bias = 0.0
radius = 16.0

[node name="tree" instance=ExtResource( 1 )]

burned_texture = ExtResource( 2 )

[node name="shape" parent="." index="0"]

shape = SubResource( 1 )

[node name="sprite" parent="." index="1"]

texture = ExtResource( 3 )
offset = Vector2( 0, -118 )
_sections_unfolded = [ "Offset", "Visibility" ]


