[gd_scene load_steps=5 format=2]

[ext_resource path="res://objects/rock/rock.tscn" type="PackedScene" id=1]
[ext_resource path="res://objects/rock/rock_4.png" type="Texture" id=2]

[sub_resource type="CircleShape2D" id=1]

custom_solver_bias = 0.0
radius = 7.6653

[sub_resource type="CapsuleShape2D" id=2]

custom_solver_bias = 0.0
radius = 8.0
height = 16.0

[node name="rock_4" index="0" instance=ExtResource( 1 )]

_sections_unfolded = [ "Transform" ]

[node name="shape" parent="." index="0"]

position = Vector2( 19.5633, 4.67184 )
shape = SubResource( 1 )

[node name="shape_2" type="CollisionShape2D" parent="." index="1"]

position = Vector2( -10.5116, 3.79587 )
rotation = 1.5708
shape = SubResource( 2 )
_sections_unfolded = [ "Transform" ]

[node name="sprite" parent="." index="2"]

position = Vector2( 1.16795, -20.1473 )
texture = ExtResource( 2 )


