[gd_scene format=2]

[node name="rock" type="StaticBody2D" index="0"]

input_pickable = false
collision_layer = 1
collision_mask = 1
constant_linear_velocity = Vector2( 0, 0 )
constant_angular_velocity = 0.0
friction = 1.0
bounce = 0.0

[node name="shape" type="CollisionShape2D" parent="." index="0"]

[node name="sprite" type="Sprite" parent="." index="1"]


