[gd_resource type="TileSet" load_steps=5 format=2]

[ext_resource path="res://tileset.png" type="Texture" id=1]

[resource]

0/name = "street"
0/texture = ExtResource( 1 )
0/tex_offset = Vector2( 0, 0 )
0/modulate = Color( 1, 1, 1, 1 )
0/region = Rect2( 0, 0, 1687, 128 )
0/is_autotile = true
0/autotile/bitmask_mode = 0
0/autotile/icon_coordinate = Vector2( 0, 0 )
0/autotile/tile_size = Vector2( 128, 128 )
0/autotile/spacing = 2
0/autotile/bitmask_flags = [ Vector2( 0, 0 ), 325, Vector2( 1, 0 ), 261, Vector2( 2, 0 ), 324, Vector2( 3, 0 ), 69, Vector2( 4, 0 ), 321, Vector2( 5, 0 ), 5, Vector2( 6, 0 ), 260, Vector2( 7, 0 ), 4, Vector2( 8, 0 ), 1, Vector2( 9, 0 ), 65, Vector2( 10, 0 ), 64, Vector2( 11, 0 ), 320, Vector2( 12, 0 ), 256 ]
0/autotile/occluder_map = [  ]
0/autotile/navpoly_map = [  ]
0/autotile/priority_map = [  ]
0/occluder_offset = Vector2( 843.5, 64 )
0/navigation_offset = Vector2( 843.5, 64 )
0/shapes = [  ]
